Polynomial degree;Kroneker avg;Sympy avg
3;0,02493607997894287;0,001297128200531006
4;0,023241734504699706;0,0014107584953308105
5;0,5513639450073242;0,001962614059448242
6;0,7715428948402405;0,0023966193199157714
7;12,657701802253722;0,003132641315460205
